BEC001;BEN001;PROSPERA;
BEC002;BEN002;PROSPERA;
BEC003;BEN003;PROSPERA;
BEC004;BEN004;PROSPERA;
BEC005;BEN005;;
BEC006;BEN006;PROSPERA Y TSUNI;
BEC007;BEN007;PROSPERA;
BEC008;BEN008;PROSPERA;
BEC009;BEN009;PROSPERA;
BEC010;BEN010;;
BEC020;BEN020;PROSPERA;
BEC021;BEN021;PROSPERA;
BEC022;BEN022;PROSPERA;
BEC023;BEN023;TSUNI;
BEC024;BEN024;PROSPERA;
BEC025;BEN025;PROSPERA;
BEC026;BEN026;PROSPERA;
BEC027;BEN027;PAL;
BEC028;BEN028;PAL ;
BEC029;BEN029;PAL Y TSUNI;
BEC030;BEN030;PAL ;
BEC040;BEN040;;
BEC041;BEN041;PROSPERA;
BEC042;BEN042;PROSPERA;
BEC043;BEN043;PROSPERA;
BEC044;BEN044;PROSPERA;
BEC045;BEN045;PROSPERA Y PAL;
BEC046;BEN046;;
BEC047;BEN047;PROSPERA;
BEC048;BEN048;PROSPERA;
BEC049;BEN049;PROSPERA;
BEC050;BEN050;PROSPERA;
BEC060;BEN060;PROSPERA;
BEC061;BEN061;;
BEC062;BEN062;PROSPERA;
BEC063;BEN063;;
BEC064;BEN064;PROSPERA;
BEC065;BEN065;;
BEC066;BEN066;PROSPERA;
BEC067;BEN067;PROSPERA;
BEC068;BEN068;;
BEC069;BEN069;PROSPERA;
