1;121;"TELESECUNDARIA GENERAL ""CONSTITUCIÓN DE 1917"" ";Tercero;SECUNDARIA;-;;7.4
2;122;COBAQ 6;Primer semestre;BACHILLERATO;-;;8.8
3;123;COBAQ 6;Tercer semestre;BACHILLERATO;-;;9.29
4;124;EMSAD 24 CASABLANCA;Tercer semestre;BACHILLERATO;-;;8.2
5;125;"TELEBACHILLERATO COMUNITARIO ""MESA DE RAMIREZ""";Primer semestre;BACHILLERATO;-;;7.5
6;126;COBAQ 6;Quinto semestre;BACHILLERATO;-;;8.9
7;127;PENDIENTE;Primer semestre;BACHILLERATO;.;;7.0
8;128;EMSAD 24 CASABLANCA;Segundo semestre;BACHILLERATO;-;;8.7
9;129;"SECUNDARIA GENERAL ""TOLLIMANI 7532""";Tercero;SECUNDARIA;-;;9.8
10;130;"TELESECUNDARIA GENERAL ""CONSTITUCIÓN DE 1917"" ";Tercero;SECUNDARIA;-;;7.2
11;131;EMSAD 24 CASABLANCA;Tercer semestre;BACHILLERATO;-;;9.14
12;132;UCEM LICENCIATURA EN TRABAJO SOCIAL;Segundo cuatrimestre;UNIVERSIDAD;LIC EN TRABAJO SOCIAL;;9.6
13;133;EMSAD 24 CASABLANCA;Primer semestre;BACHILLERATO;-;;9.2
14;134;EMSAD 24 CASABLANCA;Tercer semestre;BACHILLERATO;-;;90.07
15;135;EMSAD 24 CASABLANCA;Primer semestre;BACHILLERATO;- ;;7.1
16;136;EMSAD 24 CASABLANCA;Primer semestre;BACHILLERATO;-;;8.2
17;137;"TELEBACHILLERATO COMUNITARIO ""MESA DE RAMIREZ""";Segundo semestre;BACHILLERATO;;;7.8
18;138;EMSAD 24 CASABLANCA;Cuarto semestre;BACHILLERATO;-;;7.6
19;139;"TELESECUNDARIA GENERAL ""CONSTITUCIÓN DE 1917"" ";Tercero;SECUNDARIA;-;;7.0
20;140;EMSAD 24 CASABLANCA;Primer semestre;BACHILLERATO;-;;7.8
21;141;EMSAD 24 CASABLANCA;Primer semestre;BACHILLERATO;-;;9.2
22;142;INSTITUTO TECNOLÓGICO DE QUERÉTARO;Cuarto semestre;UNIVERSIDAD;ING EN GESTIÓN EMPRESARIAL;;8.65
23;143;UCEM LICENCIATURA EN DERECHO;Primer cuatrimestre;UNIVERSIDAD;LIC EN DERECHO;;9.1
24;144;EMSAD 24 CASABLANCA;Primer semestre;BACHILLERATO;-;;
25;145;COBAQ 6;Tercer semestre;BACHILLERATO;-;;7.5
26;146;EMSAD 24 CASABLANCA;Tercer semestre;BACHILLERATO;-;;7.49
27;147;"TELESECUNDARIA GENERAL ""CONSTITUCIÓN DE 1917"" ";Tercero;SECUNDARIA;-;;7.0
28;148;EMSAD 24 CASABLANCA;Quinto semestre;BACHILLERATO;-;;8.6
29;149;EMSAD 24 CASABLANCA;Quinto semestre;BACHILLERATO;-;;7.5
30;150;INSTITUTO TECNOLÓGICO DE QUERÉTARO;Quinto semestre;UNIVERSIDAD;ING EN SISTEMAS COMPUTACIONALES;;8.8
;;;;;;;
;;;;;;;
;;;;;;;
;;;;;;;
