BEC001;BEN001;1795
BEC002;BEN002;1485
BEC003;BEN003;1450
BEC004;BEN004;1500
BEC005;BEN005;
BEC006;BEN006;2095
BEC007;BEN007;1485
BEC008;BEN008;1750
BEC009;BEN009;1250
BEC010;BEN010;
BEC020;BEN020;700
BEC021;BEN021;650
BEC022;BEN022;2270
BEC023;BEN023;300
BEC024;BEN024;1950
BEC025;BEN025;2337
BEC026;BEN026;1447
BEC027;BEN027;860
BEC028;BEN028;1400
BEC029;BEN029;1100
BEC030;BEN030;800
BEC040;BEN040;
BEC041;BEN041;1540
BEC042;BEN042;2120
BEC043;BEN043;1235
BEC044;BEN044;2262
BEC045;BEN045;1120
BEC046;BEN046;
BEC047;BEN047;1002
BEC048;BEN048;475
BEC049;BEN049;950
BEC050;BEN050;1500
BEC060;BEN060;1800
BEC061;BEN061;
BEC062;BEN062;2200
BEC063;BEN063;
BEC064;BEN064;1200
BEC065;BEN065;
BEC066;BEN066;2300
BEC067;BEN067;1850
BEC068;BEN068;3200
BEC069;BEN069;1800
