BFT001,Mar?a Alejandra,Daza,Covarrubias,Consorcio Invercop S.A. de C.V.,Moral,2016-09-27,CIN080826CVA,Bosques Chapultepec 307 C Col Arboledas 1era Secci?n,Celaya,Guanajuato,4421863957,alejandra.daza@alterra.com.mx ,laura.malagon@alterra.me,Si,Mensual,1500,Emprendedor
BFT002,Andres,Ortega,Gonz?lez,,Fisica,2016-08-29,OEGA49102092A,Carrillo 104 Col Villas del Mes?n Juriquilla,Quer?taro,Quer?taro,4422426762,aortega3322@live.com,aragomez.correo@gmail.com,Si,Mensual,2000,Emprendedor
BFT003,Moises,Miranda,?lvarez,Firma Sien S.C.,Moral,2016-08-26,FSI140414NJ0,Bernardo Quintana 439-404 Col Centro Sur,Quer?taro,Quer?taro,4424021010,mma@firmasien.mx,storres@firmasien.mx,Si,Mensual,5000,Corporativo
BFT004,Bernardo ,Castellanos,,Comunicaci?n ?til S.A. de C.V.,Moral,2017-08-08,CUT0811141I5,Ret. Farrall?n Mz. 2 Lote 8 12 SM 15A,Canc?n,Quintana roo,9982145938,bernardocut@gmail.com,castellanos.arturo@hotmail.com ,Si,Mensual,1500,Emprendedor
BFT005,Miguel ?ngel,Feregrino,Feregrino,,Fisica,2017-01-09,,,Quer?taro,Quer?taro,4422499806,feregrinoferegrino@yahoo.com.mx,feregrinoferegrino@yahoo.com.mx,No,Mensual,5000,Corporativo
BFT006,Jes?s Alberto,S?nchez,Hern?ndez,,Fisica,2016-08-22, SAHJ6311292M6,Manuel Herrera 20 Col San Javier,Quer?taro,Quer?taro,4422421360,jesus.sanchez@alterra.com.mx,jesus.sanchez@alterra.com.mx,Si,Mensual,2000,Emprendedor
BFT007,Gerardo,Proal,de la Isla,,Fisica,2016-08-25,POIG600420EQ8,Blvd Gobernadores 1001- 14 Col MonteBlanco III ,Quer?taro,Quer?taro,4423180380,gproal@codigoaureo.com,gproal@codigoaureo.com,Si,Semestral,6000,Emprendedor
BFT008,Mario Humberto,Paulin,Nardoni,PR Estudio Legal S.C.,Moral,2017-10-01,PEL161123EX5,Allende Sur 27 Col Centro,Quer?taro,Quer?taro,4422141476,mhp@paulinrivera.com,mng@paulinrivera.com,Si,Mensual,2500,Corporativo
BFT009,Arturo Ricardo,Olivares ,Hern?ndez,Clic magnetic eyewear,Fisica,2017-06-07,OIHA521005JJ1,Avellanas 30 Valle de Los Olivos ,Quer?taro,Quer?taro,4424030430,ricardoolivares1@hotmail.com ,ricardoolivares1@hotmail.com,Si,Esporadica,5000,Corporativo
BFT010,Francisco Javier ,S?nchez,Hern?ndez,Residencial Alterra I. S.A. de C.V,Fisica,2016-07-07,SAHF650122NJ8,R?o Ayutla 43 Col La Piedad,Quer?taro,Quer?taro,4422421360,javier.sanchez@alterra.com.mx,juanjose.barrera@alterra.me,Si,Mensual,32000,Corporativo
BFT020,Jorge,S?nchez,Hern?ndez,,Fisica,2017-10-01,,,Quer?taro,Quer?taro,4424124192,, jackecham@hotmail.com,Si,Trimestral,1500,Junior
BFT021,Omar,DeAlba,Garza,,Moral,2016-09-04,OIHA521005JJ2,R?o Ayutla 43 Col La Piedad,Quer?taro,Quer?taro,4425678954,,,Si,Mensual,2800,Junior
BFT022,Juan,Aboytes,Garc?a,,Fisica,2017-06-05,OIHA521005JJ2,Avellanas 30 Valle de Los Olivos ,Quer?taro,Quer?taro,4425678954,,,Si,Mensual,5000,Corporativo
BFT023,David ,Lopez,Aboytes,,Moral,2017-10-09,OIHA521005JJ2,Avellanas 30 Valle de Los Olivos ,Quer?taro,Quer?taro,4425678954,,,Si,Mensual,3000,emprendedor
BFT024,Juana,Ruiz,Dominguez,,Fisica,2017-06-05,OIHA521005JJ2,Allende Sur 27 Col Centro,Quer?taro,Quer?taro,4425678954,,,Si,Mensual,504,emprendedor
BFT025,Rodrigo,Garcia,Zurita,,Moral,2008-08-08,OIHA521005JJ2,Avellanas 30 Valle de Los Olivos ,Quer?taro,Quer?taro,4425678954,,,Si,Mensual,795,Junior
BFT026,Miguel,Alcantar,Fernandez,,Fisica,2017-10-09,OIHA521005JJ2,Allende Sur 27 Col Centro,Quer?taro,Quer?taro,4425678954,,,Si,Mensual,456, emprendedor
BFT027,Joaquin,Lopez,Doriga,,Moral,2016-09-06,OIHA521005JJ2,,Quer?taro,Quer?taro,4425678954,,,Si,Mensual,123,Junior
BFT028,Alejandro,Fernandez,Doriga,,Fisica,2016-09-04,OIHA521005JJ2,R?o Ayutla 43 Col La Piedad,Quer?taro,Quer?taro,4425678954,,,Si,Mensual,758,emprendedor
BFT029,Javier,Dorantes,Zu?iga,,Moral,2017-10-06,OIHA521005JJ2,,Quer?taro,Quer?taro,4425678954,,,Si,Mensual,988,Junior
BFT030,Ricardo,Cortes ,Martinez,,Fisica,2016-08-07,OIHA521005JJ2,R?o Ayutla 43 Col La Piedad,Quer?taro,Quer?taro,4425678954,,,Si,Mensual,566,Junior
BFT040,Eduardo,Tejada,Flores,,,2017-11-09,OIHA521005JJ2,,Quer?taro,Quer?taro,4425678954,,,Si,Mensual,266,emprendedor
BFT041,David ,Martinez,Olvera,,,2017-12-09,OIHA521005JJ2,Blvd Gobernadores 1001- 14 Col MonteBlanco III ,Quer?taro,Quer?taro,4425678954,,,Si,Mensual,233,Junior
