FACT0002,El Glogo SA de CV,CUPU800825569,4422019432,glogo@hotmail.com,Ignacio Ramirez,1,7,Del Rio,31120,Mexico,Guanajuato,Jaral del Progreso
FACT0004,COCA COLA COMPANY,GUCH6411244W0 ,4111174290,cocacola@hotmail.com,Ignacio Aldama,4,3,Del Valle,75030,Mexico,Queretaro,San Juan del Rio
FACT0006,Alfarrico S.A.,DIHM711110PC7 ,4113032440,alfarico@hotmail.com,Jesus Oviedo Avenda?o,5,4,Espa?a,76000,Mexico,Guanajuato,Cortazar
FACT0008,BIMBO,MAPA780604123 ,4613943447,bimbo@hotmail.com,Miguel Hidalgo,4,6,Estrella,76010,Mexico,Queretaro,Pe?amiller
FACT0010,Hermanos G?mez y Ripoldi S.R.L.,AAGR740904JM1 ,4611322331,hermanogr@hotmail.com,Benito Juarez,10,5,Industrial,76020,Mexico,Queretaro,San Joaquin
FACT0012,PRICEWATERHOUSE AND COUPERS,CACX051080LF1,4611233420,price@hotmail.com,Emiliano Zapata,23,9,Insurgentes,76027,Mexico,Guanajuato,Salvatierra
FACT0014,La Guitarra S.A,BAFJ070401AZ2,4422179421,lag@hotmail.com,Lazaro Cardenas,12,2,Hidalgo,76028,Mexico,Guanajuato,Celaya
FACT0016,UNIVERSIDAD NACIONAL AUTONOMA DE MEXICO ,OIPF290225PAI,4112010834,unam@hotmail.com,Francisco I. Madero,2,67,Jurica,76029,Mexico,Queretaro,Jalpan de Serra
FACT0018,Sol Dorado,CAGM240618,4426930132,sold@hotmail.com,Miguel Miramon,9,8,Jurica,76030,Mexico,Guanajuato,Villagran
FACT0020,El Grupo Ramos,CALF450228,4112032412,gramos@hotmail.com,Juventino Rosas,18,10,La Condesa,76046,Mexico,Queretaro,Pinal de Amoles
