Eve001,Fiesta de Pedrito,Pedrito tiene una fiesta acompa?alo a celebrar!,Casa de Pedrito,5/20/2017,5/20/2017,0b91dfa4a2c5e48524db8dc1a20f8a97_280_200.jpg
Eve002,Almuerzo Otomi,Comida organizada por la comunidad Otomi,Sierra Zapaliname,5/21/2017,5/21/2017,9a85932f47168c230fc3a0539f61785e.jpg
Eve003,Recaudacion de fondos,Ayudanos a recaudar fondos para ayudar a personas con menos recursos,Centro de Queretaro,5/22/2017,5/22/2017,769_10154506254891840_7531465388807112875_n.jpg
Eve004,Carrera 5k,Carrera para promocionar el ejercicio y las costumbres sanas ,Calle Epigmenio Gonzalez,5/23/2017,5/23/2017,56975_1.jpg
Eve005,Pelea de palos,?Diviertete con nosotros en esta pelea epica! Palos incluidos,Centro de Queretaro,5/24/2017,5/24/2017,167569.jpg
Eve006,?VIVA PI?ATA!,Celebremos el complea?os de todos los presentes ?Traigan pi?ata!,Centro Nacional de las Pi?atas,5/25/2017,5/25/2017,11212750_10154209149376840_408322369398830252_n.jpg
Eve007,Feria del huarache,Feria donde se regalan huaraches; muy comodos y resistentes,Feria de Ciudad Mante,5/26/2017,5/26/2017,12219331_1045407088823057_1956404803850185851_n.jpg
Eve008,Concurso de lanzar piedras,Demuestra tus habilidades para lanzar piedras mas lejos que nadie mas,A las afueras de Queretaro,5/27/2017,5/27/2017,12239932_1091026414282557_7700174394024266061_n.jpg
Eve009,Casa embrujada,Esta temporada de Halloween ven a visitar nuestra casa embrujada,Casa abandonada ,5/28/2017,5/28/2017,12417715_10154397465926840_3234060867181142092_n.jpg
Eve010,Regalando obsequios de navidad,No todos tenemos la misma navidad ayudanos a que todos tengan regalos,Centro de Queretaro,5/29/2017,5/29/2017,12801145_10154500912386840_6327556507017575751_n.jpg
Eve011,Juego de las lagartijas,Ustedes corren y nosotros los apedreamos,Calle Epigmenio Gonzalez,5/30/2017,5/30/2017,12802735_1579057448983383_9072556779418108043_n.jpg
