USU001,a01064709,David,L?pez,Ruiz,a01064709@itesm.mx,dava01
USU002,A01207360,Romel,Martinez,Olvera,A01207360@itesm.mx,roma01
USU003,a01701249,Juan Pablo,Aboytes,Lovoa,A01701249@itesm.mx,juaa01
USU004,a00999546,Omar,DeAlba,Garza,A00999546@itesm.mx,omar01
